…
There are many ways to refer to the components of a graph, grapher refers to them as nodes and links.

- nodes: vertices, points, etc.
- links: edges, lines, etc.

To initialise a graph one needs at least nodes or links, the graph cannot be initialised empty. 

Many of the examples in the manual pages and this documentation make use of a convenience function to generate graph data, called `make_data` which returns a list of two data.frames: links and nodes. It takes a parameter `n` to define the size of the graph wanted, which defaults to `100`.

```r
g <- make_data() # mock data

head(g)
#> $nodes
#> # A tibble: 100 x 4
#>    id    label  size color  
#>    <chr> <chr> <dbl> <chr>  
#>  1 1     A79      13 #12a2a8
#>  2 2     S19      23 #ffbf50
#>  3 3     A79      39 #8a60b0
#>  4 4     I61      28 #6f63bb
#>  5 5     D30      17 #2ca030
#>  6 6     D82      13 #ff7f0e
#>  7 7     W75      15 #c7519c
#>  8 8     K63      22 #2ca030
#>  9 9     W75      40 #bcbd22
#> 10 10    I61      15 #c7519c
#> # … with 90 more rows
#> 
#> $links
#> # A tibble: 100 x 4
#>    source target weight hidden
#>    <chr>  <chr>   <dbl> <lgl> 
#>  1 1      85       6.68 FALSE 
#>  2 2      69       6.48 FALSE 
#>  3 3      22       4.03 FALSE 
#>  4 4      93       2.55 FALSE 
#>  5 5      89       6.42 FALSE 
#>  6 6      51       4.51 FALSE 
#>  7 7      54       6.68 FALSE 
#>  8 8      93       3.60 FALSE 
#>  9 9      54       4.98 FALSE 
#> 10 10     42       8.22 FALSE 
#> # … with 90 more rows
```
…
