…
grapher has a small but sufficient system of scales similar to that of [ggplot2](https://ggplot2.tidyverse.org/). In grapher scales apply to:

- nodes color
- nodes size
- links source and target color

Then again we will use the data generated by the `make_data` function.

```r
g <- make_data() # mock data

head(g)
#> $nodes
#> # A tibble: 100 x 4
#>    id    label  size color  
#>    <chr> <chr> <dbl> <chr>  
#>  1 1     U47      15 #ffaa0e
#>  2 2     Y77      39 #2ca030
#>  3 3     C3       35 #ba43b4
#>  4 4     K37      17 #78a641
#>  5 5     N14      33 #78a641
#>  6 6     A27      12 #8a60b0
#>  7 7     K37      15 #6f63bb
#>  8 8     R44      45 #6f63bb
#>  9 9     O41      24 #ffaa0e
#> 10 10    L64      39 #78a641
#> # … with 90 more rows
#> 
#> $links
#> # A tibble: 100 x 3
#>    source target hidden
#>    <chr>  <chr>  <lgl> 
#>  1 1      41     FALSE 
#>  2 2      63     FALSE 
#>  3 3      55     FALSE 
#>  4 4      15     FALSE 
#>  5 5      8      FALSE 
#>  6 6      95     FALSE 
#>  7 7      33     FALSE 
#>  8 8      33     FALSE 
#>  9 9      27     FALSE 
#> 10 10     18     FALSE 
#> # … with 90 more rows
```
…
