Get Started • grapher
…
      get-started.Rmd

library(grapher)

{grapher} is intended for full screen visualisations (e.g.: CRAN dependency graph), those demonstrated below might appear somewhat underwhelming.

{grapher} attempts to combine ease of use and customisation. One can initialise a graph from almost type of object.

There is a convenience data to generate graphs, called make_data, it returns a list of links and nodes.

g <- make_data() # mock data

head(g)
#> $nodes
#> # A tibble: 100 x 4
#>    id    label  size color  
#>    <chr> <chr> <dbl> <chr>  
#>  1 1     M91      47 #d63a3a
#>  2 2     P68      15 #ba43b4
#>  3 3     Y51      17 #8a60b0
#>  4 4     E5       30 #ffbf50
#>  5 5     Q95      48 #ffaa0e
#>  6 6     O15      41 #6f63bb
#>  7 7     M65      32 #78a641
#>  8 8     J10      42 #2ca030
#>  9 9     H34      27 #d63a3a
#> 10 10    L90      37 #ffaa0e
#> # … with 90 more rows
#> 
#> $links
#> # A tibble: 100 x 2
#>    source target
#>    <chr>  <chr> 
#>  1 1      62    
#>  2 2      58    
#>  3 3      64    
#>  4 4      76    
#>  5 5      39    
#>  6 6      83    
#>  7 7      42    
#>  8 8      87    
#>  9 9      54    
#> 10 10     63    
#> # … with 90 more rows
…
